<svg width="88" height="24" viewBox="0 0 88 24" fill="none" xmlns="http://www.w3.org/2000/svg">
<rect width="88" height="24" rx="12" fill="#ECECEC"/>
<path d="M15.6348 13.7734H12.0605L11.2578 16H10.0977L13.3555 7.46875H14.3398L17.6035 16H16.4492L15.6348 13.7734ZM12.4004 12.8477H15.3008L13.8477 8.85742L12.4004 12.8477ZM21.125 15.2324C21.5117 15.2324 21.8496 15.1152 22.1387 14.8809C22.4277 14.6465 22.5879 14.3535 22.6191 14.002H23.6445C23.625 14.3652 23.5 14.7109 23.2695 15.0391C23.0391 15.3672 22.7305 15.6289 22.3438 15.8242C21.9609 16.0195 21.5547 16.1172 21.125 16.1172C20.2617 16.1172 19.5742 15.8301 19.0625 15.2559C18.5547 14.6777 18.3008 13.8887 18.3008 12.8887V12.707C18.3008 12.0898 18.4141 11.541 18.6406 11.0605C18.8672 10.5801 19.1914 10.207 19.6133 9.94141C20.0391 9.67578 20.541 9.54297 21.1191 9.54297C21.8301 9.54297 22.4199 9.75586 22.8887 10.1816C23.3613 10.6074 23.6133 11.1602 23.6445 11.8398H22.6191C22.5879 11.4297 22.4316 11.0938 22.1504 10.832C21.873 10.5664 21.5293 10.4336 21.1191 10.4336C20.5684 10.4336 20.1406 10.6328 19.8359 11.0312C19.5352 11.4258 19.3848 11.998 19.3848 12.748V12.9531C19.3848 13.6836 19.5352 14.2461 19.8359 14.6406C20.1367 15.0352 20.5664 15.2324 21.125 15.2324ZM26.334 8.125V9.66016H27.5176V10.498H26.334V14.4297C26.334 14.6836 26.3867 14.875 26.4922 15.0039C26.5977 15.1289 26.7773 15.1914 27.0312 15.1914C27.1562 15.1914 27.3281 15.168 27.5469 15.1211V16C27.2617 16.0781 26.9844 16.1172 26.7148 16.1172C26.2305 16.1172 25.8652 15.9707 25.6191 15.6777C25.373 15.3848 25.25 14.9688 25.25 14.4297V10.498H24.0957V9.66016H25.25V8.125H26.334ZM29.9668 16H28.8828V9.66016H29.9668V16ZM28.7949 7.97852C28.7949 7.80273 28.8477 7.6543 28.9531 7.5332C29.0625 7.41211 29.2227 7.35156 29.4336 7.35156C29.6445 7.35156 29.8047 7.41211 29.9141 7.5332C30.0234 7.6543 30.0781 7.80273 30.0781 7.97852C30.0781 8.1543 30.0234 8.30078 29.9141 8.41797C29.8047 8.53516 29.6445 8.59375 29.4336 8.59375C29.2227 8.59375 29.0625 8.53516 28.9531 8.41797C28.8477 8.30078 28.7949 8.1543 28.7949 7.97852ZM33.7988 14.5293L35.3691 9.66016H36.4766L34.2031 16H33.377L31.0801 9.66016H32.1875L33.7988 14.5293ZM37.1387 12.7715C37.1387 12.1504 37.2598 11.5918 37.502 11.0957C37.748 10.5996 38.0879 10.2168 38.5215 9.94727C38.959 9.67773 39.457 9.54297 40.0156 9.54297C40.8789 9.54297 41.5762 9.8418 42.1074 10.4395C42.6426 11.0371 42.9102 11.832 42.9102 12.8242V12.9004C42.9102 13.5176 42.791 14.0723 42.5527 14.5645C42.3184 15.0527 41.9805 15.4336 41.5391 15.707C41.1016 15.9805 40.5977 16.1172 40.0273 16.1172C39.168 16.1172 38.4707 15.8184 37.9355 15.2207C37.4043 14.623 37.1387 13.832 37.1387 12.8477V12.7715ZM38.2285 12.9004C38.2285 13.6035 38.3906 14.168 38.7148 14.5938C39.043 15.0195 39.4805 15.2324 40.0273 15.2324C40.5781 15.2324 41.0156 15.0176 41.3398 14.5879C41.6641 14.1543 41.8262 13.5488 41.8262 12.7715C41.8262 12.0762 41.6602 11.5137 41.3281 11.084C41 10.6504 40.5625 10.4336 40.0156 10.4336C39.4805 10.4336 39.0488 10.6465 38.7207 11.0723C38.3926 11.498 38.2285 12.1074 38.2285 12.9004ZM52.127 13.7734H48.5527L47.75 16H46.5898L49.8477 7.46875H50.832L54.0957 16H52.9414L52.127 13.7734ZM48.8926 12.8477H51.793L50.3398 8.85742L48.8926 12.8477ZM56.1582 10.4277C56.6387 9.83789 57.2637 9.54297 58.0332 9.54297C59.373 9.54297 60.0488 10.2988 60.0605 11.8105V16H58.9766V11.8047C58.9727 11.3477 58.8672 11.0098 58.6602 10.791C58.457 10.5723 58.1387 10.4629 57.7051 10.4629C57.3535 10.4629 57.0449 10.5566 56.7793 10.7441C56.5137 10.9316 56.3066 11.1777 56.1582 11.4824V16H55.0742V7H56.1582V10.4277ZM61.3965 12.7715C61.3965 12.1504 61.5176 11.5918 61.7598 11.0957C62.0059 10.5996 62.3457 10.2168 62.7793 9.94727C63.2168 9.67773 63.7148 9.54297 64.2734 9.54297C65.1367 9.54297 65.834 9.8418 66.3652 10.4395C66.9004 11.0371 67.168 11.832 67.168 12.8242V12.9004C67.168 13.5176 67.0488 14.0723 66.8105 14.5645C66.5762 15.0527 66.2383 15.4336 65.7969 15.707C65.3594 15.9805 64.8555 16.1172 64.2852 16.1172C63.4258 16.1172 62.7285 15.8184 62.1934 15.2207C61.6621 14.623 61.3965 13.832 61.3965 12.8477V12.7715ZM62.4863 12.9004C62.4863 13.6035 62.6484 14.168 62.9727 14.5938C63.3008 15.0195 63.7383 15.2324 64.2852 15.2324C64.8359 15.2324 65.2734 15.0176 65.5977 14.5879C65.9219 14.1543 66.084 13.5488 66.084 12.7715C66.084 12.0762 65.918 11.5137 65.5859 11.084C65.2578 10.6504 64.8203 10.4336 64.2734 10.4336C63.7383 10.4336 63.3066 10.6465 62.9785 11.0723C62.6504 11.498 62.4863 12.1074 62.4863 12.9004ZM71.5918 10.6328C71.4277 10.6055 71.25 10.5918 71.0586 10.5918C70.3477 10.5918 69.8652 10.8945 69.6113 11.5V16H68.5273V9.66016H69.582L69.5996 10.3926C69.9551 9.82617 70.459 9.54297 71.1113 9.54297C71.3223 9.54297 71.4824 9.57031 71.5918 9.625V10.6328ZM76.2734 16C76.2109 15.875 76.1602 15.6523 76.1211 15.332C75.6172 15.8555 75.0156 16.1172 74.3164 16.1172C73.6914 16.1172 73.1777 15.9414 72.7754 15.5898C72.377 15.2344 72.1777 14.7852 72.1777 14.2422C72.1777 13.582 72.4277 13.0703 72.9277 12.707C73.4316 12.3398 74.1387 12.1562 75.0488 12.1562H76.1035V11.6582C76.1035 11.2793 75.9902 10.9785 75.7637 10.7559C75.5371 10.5293 75.2031 10.416 74.7617 10.416C74.375 10.416 74.0508 10.5137 73.7891 10.709C73.5273 10.9043 73.3965 11.1406 73.3965 11.418H72.3066C72.3066 11.1016 72.418 10.7969 72.6406 10.5039C72.8672 10.207 73.1719 9.97266 73.5547 9.80078C73.9414 9.62891 74.3652 9.54297 74.8262 9.54297C75.5566 9.54297 76.1289 9.72656 76.543 10.0938C76.957 10.457 77.1719 10.959 77.1875 11.5996V14.5176C77.1875 15.0996 77.2617 15.5625 77.4102 15.9062V16H76.2734ZM74.4746 15.1738C74.8145 15.1738 75.1367 15.0859 75.4414 14.9102C75.7461 14.7344 75.9668 14.5059 76.1035 14.2246V12.9238H75.2539C73.9258 12.9238 73.2617 13.3125 73.2617 14.0898C73.2617 14.4297 73.375 14.6953 73.6016 14.8867C73.8281 15.0781 74.1191 15.1738 74.4746 15.1738Z" fill="#838383"/>
</svg>
